NOTA 3,86


==================================
1.
5.0
- BUEN TRABAJO!!
==================================
2.
5.0
- BUEN TRABAJO!!

==================================
3.
----------------------------------
p1
5.0
- BUEN TRABAJO!!
